{
  "project_info": {
    "project_number": "401991999034",
    "firebase_url": "https://woven-surface-246415.firebaseio.com",
    "project_id": "woven-surface-246415",
    "storage_bucket": "woven-surface-246415.appspot.com"
  },
  "client": [
    {
      "client_info": {
        "mobilesdk_app_id": "1:401991999034:android:ec2f0194624c86b0",
        "android_client_info": {
          "package_name": "com.google.google"
        }
      },
      "oauth_client": [
        {
          "client_id": "401991999034-kjqm2falbtqrg3n53vqr0j2qrhlhdc8u.apps.googleusercontent.com",
          "client_type": 1,
          "android_info": {
            "package_name": "com.google.google",
            "certificate_hash": "707919fa9f9d127bfce7659d26d10ef29aba33eb"
          }
        },
        {
          "client_id": "401991999034-hh41mu0bbitn6pn7gt4a5r7q10msu4q2.apps.googleusercontent.com",
          "client_type": 3
        }
      ],
      "api_key": [
        {
          "current_key": "AIzaSyCDk5AYXwRlR6HowOWWwv9jEZJM2j4A7pM"
        }
      ],
      "services": {
        "appinvite_service": {
          "other_platform_oauth_client": [
            {
              "client_id": "401991999034-2nob0gf9e9vej5mafhlhkjl5fb7clke6.apps.googleusercontent.com",
              "client_type": 3
            },
            {
              "client_id": "401991999034-tf5q5kua9jutpg71ip88a2fgb2ohmbqh.apps.googleusercontent.com",
              "client_type": 2,
              "ios_info": {
                "bundle_id": "com.google.google"
              }
            }
          ]
        }
      }
    }
  ],
  "configuration_version": "1"
}